<svg width="19" height="18" viewBox="0 0 19 18" fill="none" xmlns="http://www.w3.org/2000/svg">
<path d="M8.99345 15.2222C12.9567 15.2222 16.1695 12.0385 16.1695 8.11111C16.1695 4.18375 12.9567 1 8.99345 1C5.03025 1 1.81744 4.18375 1.81744 8.11111C1.81744 12.0385 5.03025 15.2222 8.99345 15.2222Z" stroke="#4F4F4F" stroke-width="2" stroke-linecap="round" stroke-linejoin="round"/>
<path d="M17.9635 17L14.0615 13.1333" stroke="#4F4F4F" stroke-width="2" stroke-linecap="round" stroke-linejoin="round"/>
</svg>
